{
    "name": "Bugzilla",
    "version": "0.0.1",
    "author": [
        "Carl Schwan"
    ],
    "manifest_version": 1,
    "license-name": "GPL-2-or-later",
    "AutoloadClasses": {
        "BugzillaHooks": "includes/BugzillaHooks.php"
    },
    "Hooks": {
        "ParserFirstCallInit": "BugzillaHooks::onParserFirstCallInit"
    },
    "ConfigRegistry": {
        "bugzilla": "GlobalVarConfig::newInstance"
    },
    "config": {
        "BugzillaRestApiUrl": "https://bugs.kde.org/rest"
    }
}

